imax 2 number of bins
jmax 4
kmax * number of nuisance parameters
------------------------------------
shapes * bin45 variations/output_nominal_newnt.root bin45/$PROCESS bin45/$PROCESS_$SYSTEMATIC
shapes * bin30 variations/output_nominal_newnt.root bin30/$PROCESS bin30/$PROCESS_$SYSTEMATIC
------------------------------------
bin          bin45 bin30 
observation  10564 729 
------------------------------------
bin  bin45 bin45 bin45 bin45 bin45 bin30 bin30 bin30 bin30 bin30 
process  signal_M1100 qcd ttbar wjets other signal_M1100 qcd ttbar wjets other 
process  0 1 2 3 4 0 1 2 3 4 
rate  785.206  7454.71  2310.65  11.9374  288.909  419.194  66.7694  810.989  39.7125  104.251  
------------------------------------
normqcd_bin45_48_bin30_33 lnN  -    1.10 -    -    -    -    1.10 -    -    -    
normtt_bin45_48_bin30_33  lnN  -    -    1.10 -    -    -    -    1.10 -    -    
normwjets                 lnU  -    -    -    2    -    -    -    -    2    -    
