imax 2 number of bins
jmax 4
kmax * number of nuisance parameters
------------------------------------
shapes * bin10 variations/output_nominal.root bin10/$PROCESS bin10/$PROCESS_$SYSTEMATIC
shapes * bin12 variations/output_nominal.root bin12/$PROCESS bin12/$PROCESS_$SYSTEMATIC
------------------------------------
bin          bin10 bin12 
observation  78098.4 8309.07 
------------------------------------
bin  bin10 bin10 bin10 bin10 bin10 bin12 bin12 bin12 bin12 bin12 
process  signal_M1200 qcd ttbar wjets other signal_M1200 qcd ttbar wjets other 
process  0 1 2 3 4 0 1 2 3 4 
rate  1420.9  62800.3  12215.6  2090.11  992.366  861.775  741.612  5528.3  934.472  1104.69  
------------------------------------
normtt_highnjets          lnU  -    -    5    -    -    -    -    5    -    -    
normwjets                 lnU  -    -    -    2    -    -    -    -    2    -    
